<?xml version="1.0" encoding="UTF-8" standalone="no"?>

<svg
	xmlns="http://www.w3.org/2000/svg" version="1.1"
	xmlns:freecad="http://www.freecadweb.org/wiki/index.php?title=Svg_Namespace"
	width="297mm"
	height="210mm"
	viewBox="0 0 297 210">
	<!-- Working space 10 10 287 200 -->
	<!-- Title block 107 162 287 200 -->
	<g>
		<rect
			id="drawing-border"
			style="fill:none;stroke:#000000;stroke-width:0.35;stroke-linecap:miter;stroke-miterlimit:4"
			width="277"
			height="190"
			x="10"
			y="10" />
			<!-- width-20, height-20 -->
		<g
			transform="translate(87,-65)">
			<!-- A4 Portrait based for other formats width-210, height-297 -->
			<!--        page       rect   translation
			               w    h    rw   rh   tx   ty
			        A4-P  210  297  180  277    0    0
			        A3-L  420  297  390  277  210    0
			        A2-L  594  420  564  400  384  123
			        A1-L  841  594  811  574  631  297
			        A0-L 1189  841 1159  821  979  544
			-->
			<g
				id="titleblock-structure"
				style="fill:none;stroke:#000000;stroke-width:0.35;stroke-linecap:miter;stroke-miterlimit:4">
				<rect width="180" height="38" x="20" y="227" />
				<path d="m 20,238 h 180" />
				<path d="m 80,227 v 11" />
				<path d="m 140,227 v 38" />
				<path d="m 160,227 v 11" />
				<path d="m 180,227 v 11" />
				<path d="m 140,254 h 60" />
				<path d="m 180,254 v 11" />
			</g>
			<g
				id="titleblock-text-non-editable"
				style="font-size:3px;text-anchor:start;fill:#000000;font-family:osifont"
				xml:space="preserve">
				<text x="21" y="230.5">Created by:</text>
				<text x="81" y="230.5">Title:</text>
				<text x="21" y="241.5">Supplementary information:</text>
				<text x="141" y="230.5">Size:</text>
				<text x="161" y="230.5">Sheet:</text>
				<text x="181" y="230.5">Scale:</text>
				<text x="141" y="241.5">Part number:</text>
				<text x="141" y="249.5">Drawing no.:</text>
				<text x="141" y="257.5">Date:</text>
				<text x="181" y="257.5">Revision:</text>
			</g>
			<g
				id="titleblock-text-editable"
				style="font-size:5px;text-anchor:middle;fill:#000000;font-family:osifont"
				xml:space="preserve">
				<text freecad:editable="AUTHOR NAME" x="50" y="236"><tspan></tspan></text>
				<text freecad:editable="DRAWING TITLE" x="110" y="236"><tspan>48X32 WORKBENCH</tspan></text>
				<text freecad:editable="SI-1" x="80" y="247"><tspan></tspan></text>
				<text freecad:editable="FreeCAD DRAWING" x="80" y="254"><tspan>2 IN X 4 IN X 8IN DIMENSIONAL LUMBER</tspan></text>
				<text freecad:editable="SI-3" x="80" y="261"><tspan></tspan></text>
				<text freecad:editable="FC-SI" x="150" y="236"><tspan>A4</tspan></text>
				<text freecad:editable="FC-SH" x="170" y="236"><tspan>3 / 3</tspan></text>
				<text freecad:editable="FC-SC" x="190" y="236"><tspan>INCH</tspan></text>
				<text freecad:editable="PN" x="180" y="244"><tspan>48-32-2X4-36</tspan></text>
				<text freecad:editable="DN" x="180" y="252"><tspan>48-32-2X4-36-PRT</tspan></text>
				<text freecad:editable="FC-DATE" x="160" y="263"><tspan>10/15/2017</tspan></text>
				<text freecad:editable="FC-REV" x="190" y="263"><tspan>REV A</tspan></text>
			</g>
			<!-- Set display:none to hide FreeCAD Logo -->
			<g
				style="display:inline"
				id="freecad-logo"
				transform="translate(128.5,254)"
				fill-rule="evenodd"
				stroke="#000"
				stroke-width="0.35"
				fill="none">
					<path d="m0.1524 0.15254v8.8549h1.9744v-3.4652h1.396v-1.3661h-1.396v-1.4745h3.4391v-2.5441l-5.4135-0.005z"/>
					<path d="m7.7927 3.4504-0.50715-0.176-0.48387-1.2366-0.76115 0.04-0.34718 1.2787-0.4859 0.23269-1.2119-0.53015-0.51188 0.56882 0.65892 1.1485-0.18006 0.50567-1.2366 0.48387 0.044064 0.76263 1.2787 0.34718 0.23269 0.4859-0.53421 1.2104 0.56882 0.51188 1.1485-0.65891 0.50973 0.18155 0.4798 1.2351 0.7667-0.04258 0.34311-1.2802 0.4859-0.23269 1.2145 0.5357 0.51188-0.56882-0.65891-1.1485 0.17748-0.51122 1.2351-0.4798-0.03851-0.76521-1.2802-0.34311-0.23269-0.4859 0.53163-1.216-0.56881-0.51184zm-0.5715 1.2244 0.23576 0.13679 0.20426 0.18519 0.16353 0.22101 0.11763 0.24572 0.06916 0.26489 0.01146 0.27146-0.03921 0.27139-0.08948 0.25764-0.14234 0.23834-0.17964 0.20167-0.22101 0.16353-0.24572 0.11763-0.26489 0.06916-0.27295 0.01553-0.2719-0.04-0.2576-0.089-0.2383-0.143-0.2002-0.183-0.165-0.217-0.1177-0.246-0.0676-0.269-0.0156-0.273 0.039206-0.2714 0.089484-0.25764 0.14085-0.23427 0.18113-0.20574 0.22101-0.16352 0.24572-0.11763 0.26895-0.06768 0.27147-0.01146 0.27139 0.03921 0.25764 0.08948z"/>
			</g>
		</g>
	</g>
<g id="Ortho_0_003"
   transform="rotate(0,33.08,49.685) translate(33.08,49.685) scale(0.1,0.1)"
  >
<g   stroke="rgb(0, 0, 0)"
   stroke-width="3.5"
   stroke-linecap="butt"
   stroke-linejoin="miter"
   fill="none"
   transform="scale(1,-1)"
  >
<path id= "1" d=" M 2438.4 158.75 L 2438.4 234.95 " />
<path d="M2438.4,158.75 L2438.4,158.039  L2438.4,157.337  L2438.4,156.653  L2438.4,155.995  L2438.4,155.372  L2438.4,154.791  L2438.4,154.26  L2438.4,153.785  L2438.4,153.373  L2438.4,153.029  L2438.4,152.756  L2438.4,152.559  L2438.4,152.44  L2438.4,152.4 " /><path d="M2438.4,234.95 L2438.4,235.661  L2438.4,236.363  L2438.4,237.047  L2438.4,237.705  L2438.4,238.328  L2438.4,238.909  L2438.4,239.44  L2438.4,239.915  L2438.4,240.327  L2438.4,240.671  L2438.4,240.944  L2438.4,241.141  L2438.4,241.26  L2438.4,241.3 " /><path id= "4" d=" M 1962.15 234.95 L 1885.95 158.75 " />
<path d="M1885.95,158.75 L1885.24,158.039  L1884.54,157.337  L1883.85,156.653  L1883.19,155.995  L1882.57,155.372  L1881.99,154.791  L1881.46,154.26  L1880.99,153.785  L1880.57,153.373  L1880.23,153.029  L1879.96,152.756  L1879.76,152.559  L1879.64,152.44  L1879.6,152.4 " /><path id= "6" d=" M 1879.6 152.4 L 2438.4 152.4 " />
<path id= "7" d=" M 1968.5 241.3 L 2438.4 241.3 " />
<path d="M1968.5,241.3 L1968.46,241.26  L1968.34,241.141  L1968.14,240.944  L1967.87,240.671  L1967.53,240.327  L1967.11,239.915  L1966.64,239.44  L1966.11,238.909  L1965.53,238.328  L1964.91,237.705  L1964.25,237.047  L1963.56,236.363  L1962.86,235.661  L1962.15,234.95 " /><path id= "9" d=" M 1879.6 152.4 L 2438.4 152.4 " />
<path id= "10" d=" M 1822.45 158.75 L 1746.25 234.95 " />
<path id= "11" d=" M 1822.45 158.75 L 1885.95 158.75 " />
<path id= "12" d=" M 1746.25 234.95 L 1962.15 234.95 " />
<path d="M1822.45,158.75 L1823.16,158.039  L1823.86,157.337  L1824.55,156.653  L1825.21,155.995  L1825.83,155.372  L1826.41,154.791  L1826.94,154.26  L1827.41,153.785  L1827.83,153.373  L1828.17,153.029  L1828.44,152.756  L1828.64,152.559  L1828.76,152.44  L1828.8,152.4 " /><path id= "14" d=" M 1828.8 152.4 L 1879.6 152.4 " />
<path id= "15" d=" M 1739.9 241.3 L 1968.5 241.3 " />
<path d="M1739.9,241.3 L1739.94,241.26  L1740.06,241.141  L1740.26,240.944  L1740.53,240.671  L1740.87,240.327  L1741.29,239.915  L1741.76,239.44  L1742.29,238.909  L1742.87,238.328  L1743.49,237.705  L1744.15,237.047  L1744.84,236.363  L1745.54,235.661  L1746.25,234.95 " /><path id= "17" d=" M 1828.8 152.4 L 1879.6 152.4 " />
<path id= "18" d=" M 1606.55 158.75 L 1822.45 158.75 " />
<path id= "19" d=" M 1682.75 234.95 L 1746.25 234.95 " />
<path id= "20" d=" M 1682.75 234.95 L 1606.55 158.75 " />
<path d="M1606.55,158.75 L1605.84,158.039  L1605.14,157.337  L1604.45,156.653  L1603.79,155.995  L1603.17,155.372  L1602.59,154.791  L1602.06,154.26  L1601.59,153.785  L1601.17,153.373  L1600.83,153.029  L1600.56,152.756  L1600.36,152.559  L1600.24,152.44  L1600.2,152.4 " /><path id= "22" d=" M 1600.2 152.4 L 1828.8 152.4 " />
<path d="M1689.1,241.3 L1689.06,241.26  L1688.94,241.141  L1688.74,240.944  L1688.47,240.671  L1688.13,240.327  L1687.71,239.915  L1687.24,239.44  L1686.71,238.909  L1686.13,238.328  L1685.51,237.705  L1684.85,237.047  L1684.16,236.363  L1683.46,235.661  L1682.75,234.95 " /><path id= "24" d=" M 1689.1 241.3 L 1739.9 241.3 " />
<path id= "25" d=" M 1600.2 152.4 L 1828.8 152.4 " />
<path id= "26" d=" M 1543.05 158.75 L 1466.85 234.95 " />
<path id= "27" d=" M 1543.05 158.75 L 1606.55 158.75 " />
<path id= "28" d=" M 1466.85 234.95 L 1682.75 234.95 " />
<path d="M1543.05,158.75 L1543.76,158.039  L1544.46,157.337  L1545.15,156.653  L1545.81,155.995  L1546.43,155.372  L1547.01,154.791  L1547.54,154.26  L1548.01,153.785  L1548.43,153.373  L1548.77,153.029  L1549.04,152.756  L1549.24,152.559  L1549.36,152.44  L1549.4,152.4 " /><path id= "30" d=" M 1549.4 152.4 L 1600.2 152.4 " />
<path id= "31" d=" M 1460.5 241.3 L 1689.1 241.3 " />
<path d="M1460.5,241.3 L1460.54,241.26  L1460.66,241.141  L1460.86,240.944  L1461.13,240.671  L1461.47,240.327  L1461.89,239.915  L1462.36,239.44  L1462.89,238.909  L1463.47,238.328  L1464.09,237.705  L1464.75,237.047  L1465.44,236.363  L1466.14,235.661  L1466.85,234.95 " /><path id= "33" d=" M 1549.4 152.4 L 1600.2 152.4 " />
<path id= "34" d=" M 1327.15 158.75 L 1543.05 158.75 " />
<path id= "35" d=" M 1403.35 234.95 L 1466.85 234.95 " />
<path id= "36" d=" M 1403.35 234.95 L 1327.15 158.75 " />
<path d="M1327.15,158.75 L1326.44,158.039  L1325.74,157.337  L1325.05,156.653  L1324.39,155.995  L1323.77,155.372  L1323.19,154.791  L1322.66,154.26  L1322.19,153.785  L1321.77,153.373  L1321.43,153.029  L1321.16,152.756  L1320.96,152.559  L1320.84,152.44  L1320.8,152.4 " /><path id= "38" d=" M 1320.8 152.4 L 1549.4 152.4 " />
<path d="M1409.7,241.3 L1409.66,241.26  L1409.54,241.141  L1409.34,240.944  L1409.07,240.671  L1408.73,240.327  L1408.31,239.915  L1407.84,239.44  L1407.31,238.909  L1406.73,238.328  L1406.11,237.705  L1405.45,237.047  L1404.76,236.363  L1404.06,235.661  L1403.35,234.95 " /><path id= "40" d=" M 1409.7 241.3 L 1460.5 241.3 " />
<path id= "41" d=" M 1320.8 152.4 L 1549.4 152.4 " />
<path id= "42" d=" M 1263.65 158.75 L 1187.45 234.95 " />
<path id= "43" d=" M 1263.65 158.75 L 1327.15 158.75 " />
<path id= "44" d=" M 1187.45 234.95 L 1403.35 234.95 " />
<path d="M1263.65,158.75 L1264.36,158.039  L1265.06,157.337  L1265.75,156.653  L1266.41,155.995  L1267.03,155.372  L1267.61,154.791  L1268.14,154.26  L1268.61,153.785  L1269.03,153.373  L1269.37,153.029  L1269.64,152.756  L1269.84,152.559  L1269.96,152.44  L1270,152.4 " /><path id= "46" d=" M 1270 152.4 L 1320.8 152.4 " />
<path id= "47" d=" M 1181.1 241.3 L 1409.7 241.3 " />
<path d="M1181.1,241.3 L1181.14,241.26  L1181.26,241.141  L1181.46,240.944  L1181.73,240.671  L1182.07,240.327  L1182.49,239.915  L1182.96,239.44  L1183.49,238.909  L1184.07,238.328  L1184.69,237.705  L1185.35,237.047  L1186.04,236.363  L1186.74,235.661  L1187.45,234.95 " /><path id= "49" d=" M 1270 152.4 L 1320.8 152.4 " />
<path id= "50" d=" M 1047.75 158.75 L 1263.65 158.75 " />
<path id= "51" d=" M 1123.95 234.95 L 1187.45 234.95 " />
<path id= "52" d=" M 1123.95 234.95 L 1047.75 158.75 " />
<path d="M1047.75,158.75 L1047.04,158.039  L1046.34,157.337  L1045.65,156.653  L1044.99,155.995  L1044.37,155.372  L1043.79,154.791  L1043.26,154.26  L1042.79,153.785  L1042.37,153.373  L1042.03,153.029  L1041.76,152.756  L1041.56,152.559  L1041.44,152.44  L1041.4,152.4 " /><path id= "54" d=" M 1041.4 152.4 L 1270 152.4 " />
<path d="M1130.3,241.3 L1130.26,241.26  L1130.14,241.141  L1129.94,240.944  L1129.67,240.671  L1129.33,240.327  L1128.91,239.915  L1128.44,239.44  L1127.91,238.909  L1127.33,238.328  L1126.71,237.705  L1126.05,237.047  L1125.36,236.363  L1124.66,235.661  L1123.95,234.95 " /><path id= "56" d=" M 1130.3 241.3 L 1181.1 241.3 " />
<path id= "57" d=" M 1041.4 152.4 L 1270 152.4 " />
<path id= "58" d=" M 984.25 158.75 L 908.05 234.95 " />
<path id= "59" d=" M 984.25 158.75 L 1047.75 158.75 " />
<path id= "60" d=" M 908.05 234.95 L 1123.95 234.95 " />
<path d="M984.25,158.75 L984.961,158.039  L985.663,157.337  L986.347,156.653  L987.005,155.995  L987.628,155.372  L988.209,154.791  L988.74,154.26  L989.215,153.785  L989.627,153.373  L989.971,153.029  L990.244,152.756  L990.441,152.559  L990.56,152.44  L990.6,152.4 " /><path id= "62" d=" M 990.6 152.4 L 1041.4 152.4 " />
<path id= "63" d=" M 901.7 241.3 L 1130.3 241.3 " />
<path d="M901.7,241.3 L901.74,241.26  L901.859,241.141  L902.056,240.944  L902.329,240.671  L902.673,240.327  L903.085,239.915  L903.56,239.44  L904.091,238.909  L904.672,238.328  L905.295,237.705  L905.953,237.047  L906.637,236.363  L907.339,235.661  L908.05,234.95 " /><path id= "65" d=" M 990.6 152.4 L 1041.4 152.4 " />
<path id= "66" d=" M 768.35 158.75 L 984.25 158.75 " />
<path id= "67" d=" M 844.55 234.95 L 908.05 234.95 " />
<path id= "68" d=" M 768.35 158.75 L 844.55 234.95 " />
<path d="M762,152.4 L762.04,152.44  L762.159,152.559  L762.356,152.756  L762.629,153.029  L762.973,153.373  L763.385,153.785  L763.86,154.26  L764.391,154.791  L764.972,155.372  L765.595,155.995  L766.253,156.653  L766.937,157.337  L767.639,158.039  L768.35,158.75 " /><path id= "70" d=" M 762 152.4 L 990.6 152.4 " />
<path d="M844.55,234.95 L845.261,235.661  L845.963,236.363  L846.647,237.047  L847.305,237.705  L847.928,238.328  L848.509,238.909  L849.04,239.44  L849.515,239.915  L849.927,240.327  L850.271,240.671  L850.544,240.944  L850.741,241.141  L850.86,241.26  L850.9,241.3 " /><path id= "72" d=" M 850.9 241.3 L 901.7 241.3 " />
<path id= "73" d=" M 762 152.4 L 990.6 152.4 " />
<path id= "74" d=" M 762 158.75 L 762 234.95 " />
<path d="M762,158.75 L762,158.039  L762,157.337  L762,156.653  L762,155.995  L762,155.372  L762,154.791  L762,154.26  L762,153.785  L762,153.373  L762,153.029  L762,152.756  L762,152.559  L762,152.44  L762,152.4 " /><path id= "76" d=" M 762 241.3 L 850.9 241.3 " />
<path d="M762,234.95 L762,235.661  L762,236.363  L762,237.047  L762,237.705  L762,238.328  L762,238.909  L762,239.44  L762,239.915  L762,240.327  L762,240.671  L762,240.944  L762,241.141  L762,241.26  L762,241.3 " /><path id= "78" d=" M 660.4 152.4 L 762 152.4 " />
<path id= "79" d=" M 660.4 152.4 L 762 152.4 " />
<path id= "80" d=" M 660.4 158.75 L 762 158.75 " />
<path id= "81" d=" M 660.4 234.95 L 762 234.95 " />
<path id= "82" d=" M 660.4 158.75 L 660.4 234.95 " />
<path d="M660.4,158.75 L660.4,158.039  L660.4,157.337  L660.4,156.653  L660.4,155.995  L660.4,155.372  L660.4,154.791  L660.4,154.26  L660.4,153.785  L660.4,153.373  L660.4,153.029  L660.4,152.756  L660.4,152.559  L660.4,152.44  L660.4,152.4 " /><path d="M660.4,234.95 L660.4,235.661  L660.4,236.363  L660.4,237.047  L660.4,237.705  L660.4,238.328  L660.4,238.909  L660.4,239.44  L660.4,239.915  L660.4,240.327  L660.4,240.671  L660.4,240.944  L660.4,241.141  L660.4,241.26  L660.4,241.3 " /><path id= "85" d=" M 660.4 241.3 L 762 241.3 " />
<path id= "86" d=" M -1.40998e-015 152.4 L 660.4 152.4 " />
<path id= "87" d=" M -7.04992e-015 152.4 L 660.4 152.4 " />
<path id= "88" d=" M 3.9443e-031 158.75 L 660.4 158.75 " />
<path id= "89" d=" M 3.9443e-031 234.95 L 660.4 234.95 " />
<path id= "90" d=" M 0 158.75 L 0 234.95 " />
<path d="M3.9443e-031,158.75 L-8.86568e-018,158.039  L-3.53512e-017,157.337  L-7.91236e-017,156.653  L-1.39632e-016,155.995  L-2.16116e-016,155.372  L-3.07614e-016,154.791  L-4.12975e-016,154.26  L-5.30873e-016,153.785  L-6.59827e-016,153.373  L-7.98214e-016,153.029  L-9.44295e-016,152.756  L-1.09623e-015,152.559  L-1.25212e-015,152.44  L-1.40998e-015,152.4 " /><path d="M3.9443e-031,234.95 L-8.86568e-018,235.661  L-3.53512e-017,236.363  L-7.91236e-017,237.047  L-1.39632e-016,237.705  L-2.16116e-016,238.328  L-3.07614e-016,238.909  L-4.12975e-016,239.44  L-5.30873e-016,239.915  L-6.59827e-016,240.327  L-7.98214e-016,240.671  L-9.44295e-016,240.944  L-1.09623e-015,241.141  L-1.25212e-015,241.26  L-1.40998e-015,241.3 " /><path id= "93" d=" M -1.40998e-015 241.3 L 660.4 241.3 " />
</g>
</g>



<g id="Ortho_0_004"
   transform="rotate(0,33.08,84.925) translate(33.08,84.925) scale(0.1,0.1)"
  >
<g   stroke="rgb(0, 0, 0)"
   stroke-width="3.5"
   stroke-linecap="butt"
   stroke-linejoin="miter"
   fill="none"
   transform="scale(1,-1)"
  >
<path id= "1" d=" M 2438.4 311.15 L 2438.4 387.35 " />
<path d="M2438.4,311.15 L2438.4,310.439  L2438.4,309.737  L2438.4,309.053  L2438.4,308.395  L2438.4,307.772  L2438.4,307.191  L2438.4,306.66  L2438.4,306.185  L2438.4,305.773  L2438.4,305.429  L2438.4,305.156  L2438.4,304.959  L2438.4,304.84  L2438.4,304.8 " /><path d="M2438.4,387.35 L2438.4,388.061  L2438.4,388.763  L2438.4,389.447  L2438.4,390.105  L2438.4,390.728  L2438.4,391.309  L2438.4,391.84  L2438.4,392.315  L2438.4,392.727  L2438.4,393.071  L2438.4,393.344  L2438.4,393.541  L2438.4,393.66  L2438.4,393.7 " /><path id= "4" d=" M 2336.8 311.15 L 2336.8 387.35 " />
<path id= "5" d=" M 2336.8 304.8 L 2438.4 304.8 " />
<path d="M2336.8,311.15 L2336.8,310.439  L2336.8,309.737  L2336.8,309.053  L2336.8,308.395  L2336.8,307.772  L2336.8,307.191  L2336.8,306.66  L2336.8,306.185  L2336.8,305.773  L2336.8,305.429  L2336.8,305.156  L2336.8,304.959  L2336.8,304.84  L2336.8,304.8 " /><path id= "7" d=" M 2336.8 393.7 L 2438.4 393.7 " />
<path d="M2336.8,387.35 L2336.8,388.061  L2336.8,388.763  L2336.8,389.447  L2336.8,390.105  L2336.8,390.728  L2336.8,391.309  L2336.8,391.84  L2336.8,392.315  L2336.8,392.727  L2336.8,393.071  L2336.8,393.344  L2336.8,393.541  L2336.8,393.66  L2336.8,393.7 " /><path id= "9" d=" M 2336.8 304.8 L 2438.4 304.8 " />
<path id= "10" d=" M 2235.2 311.15 L 2336.8 311.15 " />
<path id= "11" d=" M 2235.2 387.35 L 2336.8 387.35 " />
<path id= "12" d=" M 2235.2 311.15 L 2235.2 387.35 " />
<path d="M2235.2,311.15 L2235.2,310.439  L2235.2,309.737  L2235.2,309.053  L2235.2,308.395  L2235.2,307.772  L2235.2,307.191  L2235.2,306.66  L2235.2,306.185  L2235.2,305.773  L2235.2,305.429  L2235.2,305.156  L2235.2,304.959  L2235.2,304.84  L2235.2,304.8 " /><path id= "14" d=" M 2235.2 304.8 L 2336.8 304.8 " />
<path d="M2235.2,387.35 L2235.2,388.061  L2235.2,388.763  L2235.2,389.447  L2235.2,390.105  L2235.2,390.728  L2235.2,391.309  L2235.2,391.84  L2235.2,392.315  L2235.2,392.727  L2235.2,393.071  L2235.2,393.344  L2235.2,393.541  L2235.2,393.66  L2235.2,393.7 " /><path id= "16" d=" M 2235.2 393.7 L 2336.8 393.7 " />
<path id= "17" d=" M 2235.2 304.8 L 2336.8 304.8 " />
<path id= "18" d=" M 2235.2 387.35 L 2336.8 387.35 " />
<path id= "19" d=" M 2133.6 311.15 L 2235.2 311.15 " />
<path id= "20" d=" M 2133.6 387.35 L 2235.2 387.35 " />
<path id= "21" d=" M 2133.6 311.15 L 2133.6 387.35 " />
<path d="M2133.6,311.15 L2133.6,310.439  L2133.6,309.737  L2133.6,309.053  L2133.6,308.395  L2133.6,307.772  L2133.6,307.191  L2133.6,306.66  L2133.6,306.185  L2133.6,305.773  L2133.6,305.429  L2133.6,305.156  L2133.6,304.959  L2133.6,304.84  L2133.6,304.8 " /><path id= "23" d=" M 2133.6 304.8 L 2235.2 304.8 " />
<path d="M2133.6,387.35 L2133.6,388.061  L2133.6,388.763  L2133.6,389.447  L2133.6,390.105  L2133.6,390.728  L2133.6,391.309  L2133.6,391.84  L2133.6,392.315  L2133.6,392.727  L2133.6,393.071  L2133.6,393.344  L2133.6,393.541  L2133.6,393.66  L2133.6,393.7 " /><path id= "25" d=" M 2133.6 393.7 L 2235.2 393.7 " />
<path id= "26" d=" M 2133.6 304.8 L 2235.2 304.8 " />
<path id= "27" d=" M 2133.6 387.35 L 2235.2 387.35 " />
<path id= "28" d=" M 1397 311.15 L 2133.6 311.15 " />
<path id= "29" d=" M 1397 387.35 L 2133.6 387.35 " />
<path id= "30" d=" M 1397 311.15 L 1397 387.35 " />
<path d="M1397,311.15 L1397,310.439  L1397,309.737  L1397,309.053  L1397,308.395  L1397,307.772  L1397,307.191  L1397,306.66  L1397,306.185  L1397,305.773  L1397,305.429  L1397,305.156  L1397,304.959  L1397,304.84  L1397,304.8 " /><path id= "32" d=" M 1397 304.8 L 2133.6 304.8 " />
<path d="M1397,387.35 L1397,388.061  L1397,388.763  L1397,389.447  L1397,390.105  L1397,390.728  L1397,391.309  L1397,391.84  L1397,392.315  L1397,392.727  L1397,393.071  L1397,393.344  L1397,393.541  L1397,393.66  L1397,393.7 " /><path id= "34" d=" M 1397 393.7 L 2133.6 393.7 " />
<path id= "35" d=" M 1397 304.8 L 2133.6 304.8 " />
<path id= "36" d=" M 1397 387.35 L 2133.6 387.35 " />
<path id= "37" d=" M 736.6 311.15 L 1397 311.15 " />
<path id= "38" d=" M 736.6 387.35 L 1397 387.35 " />
<path id= "39" d=" M 736.6 311.15 L 736.6 387.35 " />
<path d="M736.6,311.15 L736.6,310.439  L736.6,309.737  L736.6,309.053  L736.6,308.395  L736.6,307.772  L736.6,307.191  L736.6,306.66  L736.6,306.185  L736.6,305.773  L736.6,305.429  L736.6,305.156  L736.6,304.959  L736.6,304.84  L736.6,304.8 " /><path id= "41" d=" M 736.6 304.8 L 1397 304.8 " />
<path d="M736.6,387.35 L736.6,388.061  L736.6,388.763  L736.6,389.447  L736.6,390.105  L736.6,390.728  L736.6,391.309  L736.6,391.84  L736.6,392.315  L736.6,392.727  L736.6,393.071  L736.6,393.344  L736.6,393.541  L736.6,393.66  L736.6,393.7 " /><path id= "43" d=" M 736.6 393.7 L 1397 393.7 " />
<path id= "44" d=" M 736.6 304.8 L 1397 304.8 " />
<path id= "45" d=" M 736.6 387.35 L 1397 387.35 " />
<path id= "46" d=" M 3.9443e-031 311.15 L 736.6 311.15 " />
<path id= "47" d=" M 3.9443e-031 387.35 L 736.6 387.35 " />
<path id= "48" d=" M 0 311.15 L 0 387.35 " />
<path d="M3.9443e-031,311.15 L-8.86568e-018,310.439  L-3.53512e-017,309.737  L-7.91236e-017,309.053  L-1.39632e-016,308.395  L-2.16116e-016,307.772  L-3.07614e-016,307.191  L-4.12975e-016,306.66  L-5.30873e-016,306.185  L-6.59827e-016,305.773  L-7.98214e-016,305.429  L-9.44295e-016,305.156  L-1.09623e-015,304.959  L-1.25212e-015,304.84  L-1.40998e-015,304.8 " /><path id= "50" d=" M -1.40998e-015 304.8 L 736.6 304.8 " />
<path d="M3.9443e-031,387.35 L-8.86568e-018,388.061  L-3.53512e-017,388.763  L-7.91236e-017,389.447  L-1.39632e-016,390.105  L-2.16116e-016,390.728  L-3.07614e-016,391.309  L-4.12975e-016,391.84  L-5.30873e-016,392.315  L-6.59827e-016,392.727  L-7.98214e-016,393.071  L-9.44295e-016,393.344  L-1.09623e-015,393.541  L-1.25212e-015,393.66  L-1.40998e-015,393.7 " /><path id= "52" d=" M -1.40998e-015 393.7 L 736.6 393.7 " />
<path id= "53" d=" M -7.04992e-015 304.8 L 736.6 304.8 " />
<path id= "54" d=" M -8.4599e-015 387.35 L 736.6 387.35 " />
</g>
</g>



<g id="Ortho_0_005"
   transform="rotate(0,33.08,120.165) translate(33.08,120.165) scale(0.1,0.1)"
  >
<g   stroke="rgb(0, 0, 0)"
   stroke-width="3.5"
   stroke-linecap="butt"
   stroke-linejoin="miter"
   fill="none"
   transform="scale(1,-1)"
  >
<path id= "1" d=" M 2438.4 463.55 L 2438.4 539.75 " />
<path d="M2438.4,463.55 L2438.4,462.839  L2438.4,462.137  L2438.4,461.453  L2438.4,460.795  L2438.4,460.172  L2438.4,459.591  L2438.4,459.06  L2438.4,458.585  L2438.4,458.173  L2438.4,457.829  L2438.4,457.556  L2438.4,457.359  L2438.4,457.24  L2438.4,457.2 " /><path d="M2438.4,539.75 L2438.4,540.461  L2438.4,541.163  L2438.4,541.847  L2438.4,542.505  L2438.4,543.128  L2438.4,543.709  L2438.4,544.24  L2438.4,544.715  L2438.4,545.127  L2438.4,545.471  L2438.4,545.744  L2438.4,545.941  L2438.4,546.06  L2438.4,546.1 " /><path id= "4" d=" M 2362.2 463.55 L 2362.2 539.75 " />
<path id= "5" d=" M 2362.2 457.2 L 2438.4 457.2 " />
<path d="M2362.2,463.55 L2362.2,462.839  L2362.2,462.137  L2362.2,461.453  L2362.2,460.795  L2362.2,460.172  L2362.2,459.591  L2362.2,459.06  L2362.2,458.585  L2362.2,458.173  L2362.2,457.829  L2362.2,457.556  L2362.2,457.359  L2362.2,457.24  L2362.2,457.2 " /><path id= "7" d=" M 2362.2 546.1 L 2438.4 546.1 " />
<path d="M2362.2,539.75 L2362.2,540.461  L2362.2,541.163  L2362.2,541.847  L2362.2,542.505  L2362.2,543.128  L2362.2,543.709  L2362.2,544.24  L2362.2,544.715  L2362.2,545.127  L2362.2,545.471  L2362.2,545.744  L2362.2,545.941  L2362.2,546.06  L2362.2,546.1 " /><path id= "9" d=" M 2362.2 457.2 L 2438.4 457.2 " />
<path id= "10" d=" M 2260.6 463.55 L 2362.2 463.55 " />
<path id= "11" d=" M 2260.6 539.75 L 2362.2 539.75 " />
<path id= "12" d=" M 2260.6 463.55 L 2260.6 539.75 " />
<path d="M2260.6,463.55 L2260.6,462.839  L2260.6,462.137  L2260.6,461.453  L2260.6,460.795  L2260.6,460.172  L2260.6,459.591  L2260.6,459.06  L2260.6,458.585  L2260.6,458.173  L2260.6,457.829  L2260.6,457.556  L2260.6,457.359  L2260.6,457.24  L2260.6,457.2 " /><path id= "14" d=" M 2260.6 457.2 L 2362.2 457.2 " />
<path d="M2260.6,539.75 L2260.6,540.461  L2260.6,541.163  L2260.6,541.847  L2260.6,542.505  L2260.6,543.128  L2260.6,543.709  L2260.6,544.24  L2260.6,544.715  L2260.6,545.127  L2260.6,545.471  L2260.6,545.744  L2260.6,545.941  L2260.6,546.06  L2260.6,546.1 " /><path id= "16" d=" M 2260.6 546.1 L 2362.2 546.1 " />
<path id= "17" d=" M 2260.6 457.2 L 2362.2 457.2 " />
<path id= "18" d=" M 2260.6 539.75 L 2362.2 539.75 " />
<path id= "19" d=" M 1524 463.55 L 2260.6 463.55 " />
<path id= "20" d=" M 1524 539.75 L 2260.6 539.75 " />
<path id= "21" d=" M 1524 463.55 L 1524 539.75 " />
<path d="M1524,463.55 L1524,462.839  L1524,462.137  L1524,461.453  L1524,460.795  L1524,460.172  L1524,459.591  L1524,459.06  L1524,458.585  L1524,458.173  L1524,457.829  L1524,457.556  L1524,457.359  L1524,457.24  L1524,457.2 " /><path id= "23" d=" M 1524 457.2 L 2260.6 457.2 " />
<path d="M1524,539.75 L1524,540.461  L1524,541.163  L1524,541.847  L1524,542.505  L1524,543.128  L1524,543.709  L1524,544.24  L1524,544.715  L1524,545.127  L1524,545.471  L1524,545.744  L1524,545.941  L1524,546.06  L1524,546.1 " /><path id= "25" d=" M 1524 546.1 L 2260.6 546.1 " />
<path id= "26" d=" M 1524 457.2 L 2260.6 457.2 " />
<path id= "27" d=" M 1524 539.75 L 2260.6 539.75 " />
<path id= "28" d=" M 762 463.55 L 1524 463.55 " />
<path id= "29" d=" M 762 539.75 L 1524 539.75 " />
<path id= "30" d=" M 762 463.55 L 762 539.75 " />
<path d="M762,463.55 L762,462.839  L762,462.137  L762,461.453  L762,460.795  L762,460.172  L762,459.591  L762,459.06  L762,458.585  L762,458.173  L762,457.829  L762,457.556  L762,457.359  L762,457.24  L762,457.2 " /><path id= "32" d=" M 762 457.2 L 1524 457.2 " />
<path d="M762,539.75 L762,540.461  L762,541.163  L762,541.847  L762,542.505  L762,543.128  L762,543.709  L762,544.24  L762,544.715  L762,545.127  L762,545.471  L762,545.744  L762,545.941  L762,546.06  L762,546.1 " /><path id= "34" d=" M 762 546.1 L 1524 546.1 " />
<path id= "35" d=" M 762 457.2 L 1524 457.2 " />
<path id= "36" d=" M 762 539.75 L 1524 539.75 " />
<path id= "37" d=" M 3.9443e-031 463.55 L 762 463.55 " />
<path id= "38" d=" M 3.9443e-031 539.75 L 762 539.75 " />
<path id= "39" d=" M 0 463.55 L 0 539.75 " />
<path d="M3.9443e-031,463.55 L-8.86568e-018,462.839  L-3.53512e-017,462.137  L-7.91236e-017,461.453  L-1.39632e-016,460.795  L-2.16116e-016,460.172  L-3.07614e-016,459.591  L-4.12975e-016,459.06  L-5.30873e-016,458.585  L-6.59827e-016,458.173  L-7.98214e-016,457.829  L-9.44295e-016,457.556  L-1.09623e-015,457.359  L-1.25212e-015,457.24  L-1.40998e-015,457.2 " /><path id= "41" d=" M -1.40998e-015 457.2 L 762 457.2 " />
<path d="M3.9443e-031,539.75 L-8.86568e-018,540.461  L-3.53512e-017,541.163  L-7.91236e-017,541.847  L-1.39632e-016,542.505  L-2.16116e-016,543.128  L-3.07614e-016,543.709  L-4.12975e-016,544.24  L-5.30873e-016,544.715  L-6.59827e-016,545.127  L-7.98214e-016,545.471  L-9.44295e-016,545.744  L-1.09623e-015,545.941  L-1.25212e-015,546.06  L-1.40998e-015,546.1 " /><path id= "43" d=" M -1.40998e-015 546.1 L 762 546.1 " />
<path id= "44" d=" M -7.04992e-015 457.2 L 762 457.2 " />
<path id= "45" d=" M -8.4599e-015 539.75 L 762 539.75 " />
</g>
</g>



<g id="Ortho_0_006"
   transform="rotate(0,33.08,155.405) translate(33.08,155.405) scale(0.1,0.1)"
  >
<g   stroke="rgb(0, 0, 0)"
   stroke-width="3.5"
   stroke-linecap="butt"
   stroke-linejoin="miter"
   fill="none"
   transform="scale(1,-1)"
  >
<path id= "1" d=" M 2438.4 615.95 L 2438.4 692.15 " />
<path d="M2438.4,615.95 L2438.4,615.239  L2438.4,614.537  L2438.4,613.853  L2438.4,613.195  L2438.4,612.572  L2438.4,611.991  L2438.4,611.46  L2438.4,610.985  L2438.4,610.573  L2438.4,610.229  L2438.4,609.956  L2438.4,609.759  L2438.4,609.64  L2438.4,609.6 " /><path d="M2438.4,692.15 L2438.4,692.861  L2438.4,693.563  L2438.4,694.247  L2438.4,694.905  L2438.4,695.528  L2438.4,696.109  L2438.4,696.64  L2438.4,697.115  L2438.4,697.527  L2438.4,697.871  L2438.4,698.144  L2438.4,698.341  L2438.4,698.46  L2438.4,698.5 " /><path id= "4" d=" M 1828.8 615.95 L 1828.8 692.15 " />
<path id= "5" d=" M 1828.8 609.6 L 2438.4 609.6 " />
<path d="M1828.8,615.95 L1828.8,615.239  L1828.8,614.537  L1828.8,613.853  L1828.8,613.195  L1828.8,612.572  L1828.8,611.991  L1828.8,611.46  L1828.8,610.985  L1828.8,610.573  L1828.8,610.229  L1828.8,609.956  L1828.8,609.759  L1828.8,609.64  L1828.8,609.6 " /><path id= "7" d=" M 1828.8 698.5 L 2438.4 698.5 " />
<path d="M1828.8,692.15 L1828.8,692.861  L1828.8,693.563  L1828.8,694.247  L1828.8,694.905  L1828.8,695.528  L1828.8,696.109  L1828.8,696.64  L1828.8,697.115  L1828.8,697.527  L1828.8,697.871  L1828.8,698.144  L1828.8,698.341  L1828.8,698.46  L1828.8,698.5 " /><path id= "9" d=" M 1828.8 609.6 L 2438.4 609.6 " />
<path id= "10" d=" M 1066.8 615.95 L 1828.8 615.95 " />
<path id= "11" d=" M 1066.8 692.15 L 1828.8 692.15 " />
<path id= "12" d=" M 1066.8 615.95 L 1066.8 692.15 " />
<path d="M1066.8,615.95 L1066.8,615.239  L1066.8,614.537  L1066.8,613.853  L1066.8,613.195  L1066.8,612.572  L1066.8,611.991  L1066.8,611.46  L1066.8,610.985  L1066.8,610.573  L1066.8,610.229  L1066.8,609.956  L1066.8,609.759  L1066.8,609.64  L1066.8,609.6 " /><path id= "14" d=" M 1066.8 609.6 L 1828.8 609.6 " />
<path d="M1066.8,692.15 L1066.8,692.861  L1066.8,693.563  L1066.8,694.247  L1066.8,694.905  L1066.8,695.528  L1066.8,696.109  L1066.8,696.64  L1066.8,697.115  L1066.8,697.527  L1066.8,697.871  L1066.8,698.144  L1066.8,698.341  L1066.8,698.46  L1066.8,698.5 " /><path id= "16" d=" M 1066.8 698.5 L 1828.8 698.5 " />
<path id= "17" d=" M 1066.8 609.6 L 1828.8 609.6 " />
<path id= "18" d=" M 1066.8 692.15 L 1828.8 692.15 " />
<path id= "19" d=" M 3.9443e-031 615.95 L 1066.8 615.95 " />
<path id= "20" d=" M 3.9443e-031 692.15 L 1066.8 692.15 " />
<path id= "21" d=" M 0 615.95 L 0 692.15 " />
<path d="M3.9443e-031,615.95 L-8.86568e-018,615.239  L-3.53512e-017,614.537  L-7.91236e-017,613.853  L-1.39632e-016,613.195  L-2.16116e-016,612.572  L-3.07614e-016,611.991  L-4.12975e-016,611.46  L-5.30873e-016,610.985  L-6.59827e-016,610.573  L-7.98214e-016,610.229  L-9.44295e-016,609.956  L-1.09623e-015,609.759  L-1.25212e-015,609.64  L-1.40998e-015,609.6 " /><path id= "23" d=" M -1.40998e-015 609.6 L 1066.8 609.6 " />
<path d="M3.9443e-031,692.15 L-8.86568e-018,692.861  L-3.53512e-017,693.563  L-7.91236e-017,694.247  L-1.39632e-016,694.905  L-2.16116e-016,695.528  L-3.07614e-016,696.109  L-4.12975e-016,696.64  L-5.30873e-016,697.115  L-6.59827e-016,697.527  L-7.98214e-016,697.871  L-9.44295e-016,698.144  L-1.09623e-015,698.341  L-1.25212e-015,698.46  L-1.40998e-015,698.5 " /><path id= "25" d=" M -1.40998e-015 698.5 L 1066.8 698.5 " />
<path id= "26" d=" M -7.04992e-015 609.6 L 1066.8 609.6 " />
<path id= "27" d=" M -8.4599e-015 692.15 L 1066.8 692.15 " />
</g>
</g>



<g id="Ortho_0_007"
   transform="rotate(0,33.08,190.645) translate(33.08,190.645) scale(0.1,0.1)"
  >
<g   stroke="rgb(0, 0, 0)"
   stroke-width="3.5"
   stroke-linecap="butt"
   stroke-linejoin="miter"
   fill="none"
   transform="scale(1,-1)"
  >
<path id= "1" d=" M 2438.4 768.35 L 2438.4 844.55 " />
<path d="M2438.4,768.35 L2438.4,767.639  L2438.4,766.937  L2438.4,766.253  L2438.4,765.595  L2438.4,764.972  L2438.4,764.391  L2438.4,763.86  L2438.4,763.385  L2438.4,762.973  L2438.4,762.629  L2438.4,762.356  L2438.4,762.159  L2438.4,762.04  L2438.4,762 " /><path d="M2438.4,844.55 L2438.4,845.261  L2438.4,845.963  L2438.4,846.647  L2438.4,847.305  L2438.4,847.928  L2438.4,848.509  L2438.4,849.04  L2438.4,849.515  L2438.4,849.927  L2438.4,850.271  L2438.4,850.544  L2438.4,850.741  L2438.4,850.86  L2438.4,850.9 " /><path id= "4" d=" M 1828.8 768.35 L 1828.8 844.55 " />
<path id= "5" d=" M 1828.8 762 L 2438.4 762 " />
<path d="M1828.8,768.35 L1828.8,767.639  L1828.8,766.937  L1828.8,766.253  L1828.8,765.595  L1828.8,764.972  L1828.8,764.391  L1828.8,763.86  L1828.8,763.385  L1828.8,762.973  L1828.8,762.629  L1828.8,762.356  L1828.8,762.159  L1828.8,762.04  L1828.8,762 " /><path id= "7" d=" M 1828.8 850.9 L 2438.4 850.9 " />
<path d="M1828.8,844.55 L1828.8,845.261  L1828.8,845.963  L1828.8,846.647  L1828.8,847.305  L1828.8,847.928  L1828.8,848.509  L1828.8,849.04  L1828.8,849.515  L1828.8,849.927  L1828.8,850.271  L1828.8,850.544  L1828.8,850.741  L1828.8,850.86  L1828.8,850.9 " /><path id= "9" d=" M 1828.8 762 L 2438.4 762 " />
<path id= "10" d=" M 1066.8 768.35 L 1828.8 768.35 " />
<path id= "11" d=" M 1066.8 844.55 L 1828.8 844.55 " />
<path id= "12" d=" M 1066.8 768.35 L 1066.8 844.55 " />
<path d="M1066.8,768.35 L1066.8,767.639  L1066.8,766.937  L1066.8,766.253  L1066.8,765.595  L1066.8,764.972  L1066.8,764.391  L1066.8,763.86  L1066.8,763.385  L1066.8,762.973  L1066.8,762.629  L1066.8,762.356  L1066.8,762.159  L1066.8,762.04  L1066.8,762 " /><path id= "14" d=" M 1066.8 762 L 1828.8 762 " />
<path d="M1066.8,844.55 L1066.8,845.261  L1066.8,845.963  L1066.8,846.647  L1066.8,847.305  L1066.8,847.928  L1066.8,848.509  L1066.8,849.04  L1066.8,849.515  L1066.8,849.927  L1066.8,850.271  L1066.8,850.544  L1066.8,850.741  L1066.8,850.86  L1066.8,850.9 " /><path id= "16" d=" M 1066.8 850.9 L 1828.8 850.9 " />
<path id= "17" d=" M 1066.8 762 L 1828.8 762 " />
<path id= "18" d=" M 3.9443e-031 768.35 L 1066.8 768.35 " />
<path id= "19" d=" M 3.9443e-031 844.55 L 1066.8 844.55 " />
<path id= "20" d=" M 0 768.35 L 0 844.55 " />
<path d="M3.9443e-031,768.35 L-8.86568e-018,767.639  L-3.53512e-017,766.937  L-7.91236e-017,766.253  L-1.39632e-016,765.595  L-2.16116e-016,764.972  L-3.07614e-016,764.391  L-4.12975e-016,763.86  L-5.30873e-016,763.385  L-6.59827e-016,762.973  L-7.98214e-016,762.629  L-9.44295e-016,762.356  L-1.09623e-015,762.159  L-1.25212e-015,762.04  L-1.40998e-015,762 " /><path id= "22" d=" M -1.40998e-015 762 L 1066.8 762 " />
<path d="M3.9443e-031,844.55 L-8.86568e-018,845.261  L-3.53512e-017,845.963  L-7.91236e-017,846.647  L-1.39632e-016,847.305  L-2.16116e-016,847.928  L-3.07614e-016,848.509  L-4.12975e-016,849.04  L-5.30873e-016,849.515  L-6.59827e-016,849.927  L-7.98214e-016,850.271  L-9.44295e-016,850.544  L-1.09623e-015,850.741  L-1.25212e-015,850.86  L-1.40998e-015,850.9 " /><path id= "24" d=" M -1.40998e-015 850.9 L 1066.8 850.9 " />
<path id= "25" d=" M -7.04992e-015 762 L 1066.8 762 " />
</g>
</g>



<g id="Ortho_0_008"
   transform="rotate(0,33.08,225.885) translate(33.08,225.885) scale(0.1,0.1)"
  >
<g   stroke="rgb(0, 0, 0)"
   stroke-width="3.5"
   stroke-linecap="butt"
   stroke-linejoin="miter"
   fill="none"
   transform="scale(1,-1)"
  >
<path id= "1" d=" M 2438.4 920.75 L 2438.4 996.95 " />
<path d="M2438.4,920.75 L2438.4,920.039  L2438.4,919.337  L2438.4,918.653  L2438.4,917.995  L2438.4,917.372  L2438.4,916.791  L2438.4,916.26  L2438.4,915.785  L2438.4,915.373  L2438.4,915.029  L2438.4,914.756  L2438.4,914.559  L2438.4,914.44  L2438.4,914.4 " /><path d="M2438.4,996.95 L2438.4,997.661  L2438.4,998.363  L2438.4,999.047  L2438.4,999.705  L2438.4,1000.33  L2438.4,1000.91  L2438.4,1001.44  L2438.4,1001.91  L2438.4,1002.33  L2438.4,1002.67  L2438.4,1002.94  L2438.4,1003.14  L2438.4,1003.26  L2438.4,1003.3 " /><path id= "4" d=" M 1219.2 920.75 L 1219.2 996.95 " />
<path d="M1219.2,920.75 L1219.2,920.039  L1219.2,919.337  L1219.2,918.653  L1219.2,917.995  L1219.2,917.372  L1219.2,916.791  L1219.2,916.26  L1219.2,915.785  L1219.2,915.373  L1219.2,915.029  L1219.2,914.756  L1219.2,914.559  L1219.2,914.44  L1219.2,914.4 " /><path id= "6" d=" M 1219.2 914.4 L 2438.4 914.4 " />
<path d="M1219.2,996.95 L1219.2,997.661  L1219.2,998.363  L1219.2,999.047  L1219.2,999.705  L1219.2,1000.33  L1219.2,1000.91  L1219.2,1001.44  L1219.2,1001.91  L1219.2,1002.33  L1219.2,1002.67  L1219.2,1002.94  L1219.2,1003.14  L1219.2,1003.26  L1219.2,1003.3 " /><path id= "8" d=" M 1219.2 1003.3 L 2438.4 1003.3 " />
<path id= "9" d=" M 1219.2 914.4 L 2438.4 914.4 " />
<path id= "10" d=" M 0 920.75 L 0 996.95 " />
<path d="M3.9443e-031,920.75 L-8.86568e-018,920.039  L-3.53512e-017,919.337  L-7.91236e-017,918.653  L-1.39632e-016,917.995  L-2.16116e-016,917.372  L-3.07614e-016,916.791  L-4.12975e-016,916.26  L-5.30873e-016,915.785  L-6.59827e-016,915.373  L-7.98214e-016,915.029  L-9.44295e-016,914.756  L-1.09623e-015,914.559  L-1.25212e-015,914.44  L-1.40998e-015,914.4 " /><path id= "12" d=" M -1.40998e-015 914.4 L 1219.2 914.4 " />
<path d="M3.9443e-031,996.95 L-8.86568e-018,997.661  L-3.53512e-017,998.363  L-7.91236e-017,999.047  L-1.39632e-016,999.705  L-2.16116e-016,1000.33  L-3.07614e-016,1000.91  L-4.12975e-016,1001.44  L-5.30873e-016,1001.91  L-6.59827e-016,1002.33  L-7.98214e-016,1002.67  L-9.44295e-016,1002.94  L-1.09623e-015,1003.14  L-1.25212e-015,1003.26  L-1.40998e-015,1003.3 " /><path id= "14" d=" M -1.40998e-015 1003.3 L 1219.2 1003.3 " />
<path id= "15" d=" M -7.04992e-015 914.4 L 1219.2 914.4 " />
</g>
</g>



<g transform="translate(10,10) rotate(0)">
<text id="Annotation"
 font-family="Sans"
 font-size="7"
 fill="#000000">
<tspan x="0" dy="1em"></tspan>
</text>
</g>



<g transform="translate(10,10) rotate(0)">
<text id="Annotation001"
 font-family="Sans"
 font-size="7"
 fill="#000000">
<tspan x="0" dy="1em"></tspan>
</text>
</g>



<g> <text x="15.977725" y="31.471277" font-family="inherit" font-size="5" fill="rgb(0,0,0)" text-anchor="inherit" transform="rotate(0.000000 15.977725,31.471277)" >2x4-1</text> </g>


<g> <text x="16.461899" y="52.048651" font-family="inherit" font-size="5" fill="rgb(0,0,0)" text-anchor="inherit" transform="rotate(0.000000 16.461899,52.048651)" >2x4-2</text> </g>


<g> <text x="15.251465" y="72.141851" font-family="inherit" font-size="5" fill="rgb(0,0,0)" text-anchor="inherit" transform="rotate(0.000000 15.251465,72.141851)" >2x4-3</text> </g>


<g> <text x="15.493552" y="91.266704" font-family="inherit" font-size="5" fill="rgb(0,0,0)" text-anchor="inherit" transform="rotate(0.000000 15.493552,91.266704)" >2x4-4</text> </g>


<g> <text x="15.977725" y="111.359904" font-family="inherit" font-size="5" fill="rgb(0,0,0)" text-anchor="inherit" transform="rotate(0.000000 15.977725,111.359904)" >2x4-5</text> </g>


<g> <text x="15.493552" y="132.905625" font-family="inherit" font-size="5" fill="rgb(0,0,0)" text-anchor="inherit" transform="rotate(0.000000 15.493552,132.905625)" >2x4-6</text> </g>


<g> <text x="77.467760" y="132.179365" font-family="inherit" font-size="5" fill="rgb(0,0,0)" text-anchor="inherit" transform="rotate(0.000000 77.467760,132.179365)" >TOP_X-1</text> </g>


<g> <text x="212.310079" y="132.421452" font-family="inherit" font-size="5" fill="rgb(0,0,0)" text-anchor="inherit" transform="rotate(0.000000 212.310079,132.421452)" >TOP_X-2</text> </g>


<g> 
  <line x1="33.080000" y1="136.445000" x2="33.080000" y2="143.104922" style="stroke:rgb(0,0,255);stroke-width:0.50" />
<line x1="155.000000" y1="136.445000" x2="155.000000" y2="143.104922" style="stroke:rgb(0,0,255);stroke-width:0.50" />
<line x1="33.080000" y1="142.104922" x2="155.000000" y2="142.104922" style="stroke:rgb(0,0,255);stroke-width:0.50" /> 
  <polygon points="155.000000,142.104922 152.000000,141.104922 151.000000,142.104922 152.000000,143.104922" style="fill:rgb(0,0,255);stroke:rgb(0,0,255);stroke-width:0" /><polygon points="33.080000,142.104922 36.080000,143.104922 37.080000,142.104922 36.080000,141.104922" style="fill:rgb(0,0,255);stroke:rgb(0,0,255);stroke-width:0" /> 
  <text x="94.040000" y="140.104922" font-family="inherit" font-size="3.6" fill="rgb(0,0,255)" text-anchor="middle" transform="rotate(0.000000 94.040000,140.104922)" >48</text> </g>


<g> 
  <line x1="155.000000" y1="136.445000" x2="155.000000" y2="143.104922" style="stroke:rgb(0,0,255);stroke-width:0.50" />
<line x1="276.920000" y1="136.445000" x2="276.920000" y2="143.104922" style="stroke:rgb(0,0,255);stroke-width:0.50" />
<line x1="155.000000" y1="142.104922" x2="276.920000" y2="142.104922" style="stroke:rgb(0,0,255);stroke-width:0.50" /> 
  <polygon points="276.920000,142.104922 273.920000,141.104922 272.920000,142.104922 273.920000,143.104922" style="fill:rgb(0,0,255);stroke:rgb(0,0,255);stroke-width:0" /><polygon points="155.000000,142.104922 158.000000,143.104922 159.000000,142.104922 158.000000,141.104922" style="fill:rgb(0,0,255);stroke:rgb(0,0,255);stroke-width:0" /> 
  <text x="215.960000" y="140.104922" font-family="inherit" font-size="3.6" fill="rgb(0,0,255)" text-anchor="middle" transform="rotate(0.000000 215.960000,140.104922)" >48</text> </g>


<g> 
  <line x1="33.080000" y1="116.445000" x2="33.080000" y2="121.559201" style="stroke:rgb(0,0,255);stroke-width:0.50" />
<line x1="139.760000" y1="116.445000" x2="139.760000" y2="121.559201" style="stroke:rgb(0,0,255);stroke-width:0.50" />
<line x1="33.080000" y1="120.559201" x2="139.760000" y2="120.559201" style="stroke:rgb(0,0,255);stroke-width:0.50" /> 
  <polygon points="139.760000,120.559201 136.760000,119.559201 135.760000,120.559201 136.760000,121.559201" style="fill:rgb(0,0,255);stroke:rgb(0,0,255);stroke-width:0" /><polygon points="33.080000,120.559201 36.080000,121.559201 37.080000,120.559201 36.080000,119.559201" style="fill:rgb(0,0,255);stroke:rgb(0,0,255);stroke-width:0" /> 
  <text x="86.420000" y="118.559201" font-family="inherit" font-size="3.6" fill="rgb(0,0,255)" text-anchor="middle" transform="rotate(0.000000 86.420000,118.559201)" >42</text> </g>


<g> 
  <line x1="139.760000" y1="116.445000" x2="139.760000" y2="121.559201" style="stroke:rgb(0,0,255);stroke-width:0.50" />
<line x1="215.960000" y1="116.445000" x2="215.960000" y2="121.559201" style="stroke:rgb(0,0,255);stroke-width:0.50" />
<line x1="139.760000" y1="120.559201" x2="215.960000" y2="120.559201" style="stroke:rgb(0,0,255);stroke-width:0.50" /> 
  <polygon points="215.960000,120.559201 212.960000,119.559201 211.960000,120.559201 212.960000,121.559201" style="fill:rgb(0,0,255);stroke:rgb(0,0,255);stroke-width:0" /><polygon points="139.760000,120.559201 142.760000,121.559201 143.760000,120.559201 142.760000,119.559201" style="fill:rgb(0,0,255);stroke:rgb(0,0,255);stroke-width:0" /> 
  <text x="177.860000" y="118.559201" font-family="inherit" font-size="3.6" fill="rgb(0,0,255)" text-anchor="middle" transform="rotate(0.000000 177.860000,118.559201)" >30</text> </g>


<g> 
  <line x1="139.760000" y1="96.445000" x2="139.760000" y2="102.192261" style="stroke:rgb(0,0,255);stroke-width:0.50" />
<line x1="215.960000" y1="96.445000" x2="215.960000" y2="102.192261" style="stroke:rgb(0,0,255);stroke-width:0.50" />
<line x1="139.760000" y1="101.192261" x2="215.960000" y2="101.192261" style="stroke:rgb(0,0,255);stroke-width:0.50" /> 
  <polygon points="215.960000,101.192261 212.960000,100.192261 211.960000,101.192261 212.960000,102.192261" style="fill:rgb(0,0,255);stroke:rgb(0,0,255);stroke-width:0" /><polygon points="139.760000,101.192261 142.760000,102.192261 143.760000,101.192261 142.760000,100.192261" style="fill:rgb(0,0,255);stroke:rgb(0,0,255);stroke-width:0" /> 
  <text x="177.860000" y="99.192261" font-family="inherit" font-size="3.6" fill="rgb(0,0,255)" text-anchor="middle" transform="rotate(0.000000 177.860000,99.192261)" >30</text> </g>


<g> 
  <line x1="33.080000" y1="96.445000" x2="33.080000" y2="102.139691" style="stroke:rgb(0,0,255);stroke-width:0.50" />
<line x1="139.760000" y1="96.445000" x2="139.760000" y2="102.139691" style="stroke:rgb(0,0,255);stroke-width:0.50" />
<line x1="33.080000" y1="101.139691" x2="139.760000" y2="101.139691" style="stroke:rgb(0,0,255);stroke-width:0.50" /> 
  <polygon points="139.760000,101.139691 136.760000,100.139691 135.760000,101.139691 136.760000,102.139691" style="fill:rgb(0,0,255);stroke:rgb(0,0,255);stroke-width:0" /><polygon points="33.080000,101.139691 36.080000,102.139691 37.080000,101.139691 36.080000,100.139691" style="fill:rgb(0,0,255);stroke:rgb(0,0,255);stroke-width:0" /> 
  <text x="86.420000" y="99.139691" font-family="inherit" font-size="3.6" fill="rgb(0,0,255)" text-anchor="middle" transform="rotate(0.000000 86.420000,99.139691)" >42</text> </g>


<g> 
  <line x1="109.280000" y1="76.445000" x2="109.280000" y2="80.931263" style="stroke:rgb(0,0,255);stroke-width:0.50" />
<line x1="185.480000" y1="76.445000" x2="185.480000" y2="80.931263" style="stroke:rgb(0,0,255);stroke-width:0.50" />
<line x1="109.280000" y1="79.931263" x2="185.480000" y2="79.931263" style="stroke:rgb(0,0,255);stroke-width:0.50" /> 
  <polygon points="185.480000,79.931263 182.480000,78.931263 181.480000,79.931263 182.480000,80.931263" style="fill:rgb(0,0,255);stroke:rgb(0,0,255);stroke-width:0" /><polygon points="109.280000,79.931263 112.280000,80.931263 113.280000,79.931263 112.280000,78.931263" style="fill:rgb(0,0,255);stroke:rgb(0,0,255);stroke-width:0" /> 
  <text x="147.380000" y="77.931263" font-family="inherit" font-size="3.6" fill="rgb(0,0,255)" text-anchor="middle" transform="rotate(0.000000 147.380000,77.931263)" >30</text> </g>


<g> 
  <line x1="185.480000" y1="76.445000" x2="185.480000" y2="80.824688" style="stroke:rgb(0,0,255);stroke-width:0.50" />
<line x1="259.140000" y1="76.445000" x2="259.140000" y2="80.824688" style="stroke:rgb(0,0,255);stroke-width:0.50" />
<line x1="185.480000" y1="79.824688" x2="259.140000" y2="79.824688" style="stroke:rgb(0,0,255);stroke-width:0.50" /> 
  <polygon points="259.140000,79.824688 256.140000,78.824688 255.140000,79.824688 256.140000,80.824688" style="fill:rgb(0,0,255);stroke:rgb(0,0,255);stroke-width:0" /><polygon points="185.480000,79.824688 188.480000,80.824688 189.480000,79.824688 188.480000,78.824688" style="fill:rgb(0,0,255);stroke:rgb(0,0,255);stroke-width:0" /> 
  <text x="222.310000" y="77.824688" font-family="inherit" font-size="3.6" fill="rgb(0,0,255)" text-anchor="middle" transform="rotate(0.000000 222.310000,77.824688)" >29</text> </g>


<g> 
  <line x1="33.080000" y1="76.445000" x2="33.080000" y2="80.931263" style="stroke:rgb(0,0,255);stroke-width:0.50" />
<line x1="109.280000" y1="76.445000" x2="109.280000" y2="80.931263" style="stroke:rgb(0,0,255);stroke-width:0.50" />
<line x1="33.080000" y1="79.931263" x2="109.280000" y2="79.931263" style="stroke:rgb(0,0,255);stroke-width:0.50" /> 
  <polygon points="109.280000,79.931263 106.280000,78.931263 105.280000,79.931263 106.280000,80.931263" style="fill:rgb(0,0,255);stroke:rgb(0,0,255);stroke-width:0" /><polygon points="33.080000,79.931263 36.080000,80.931263 37.080000,79.931263 36.080000,78.931263" style="fill:rgb(0,0,255);stroke:rgb(0,0,255);stroke-width:0" /> 
  <text x="71.180000" y="77.931263" font-family="inherit" font-size="3.6" fill="rgb(0,0,255)" text-anchor="middle" transform="rotate(0.000000 71.180000,77.931263)" >30</text> </g>


<g> 
  <line x1="259.140000" y1="76.445000" x2="259.140000" y2="80.790685" style="stroke:rgb(0,0,255);stroke-width:0.50" />
<line x1="269.300000" y1="76.445000" x2="269.300000" y2="80.790685" style="stroke:rgb(0,0,255);stroke-width:0.50" />
<line x1="259.140000" y1="79.790685" x2="269.300000" y2="79.790685" style="stroke:rgb(0,0,255);stroke-width:0.50" /> 
  <polygon points="269.300000,79.790685 266.300000,78.790685 265.300000,79.790685 266.300000,80.790685" style="fill:rgb(0,0,255);stroke:rgb(0,0,255);stroke-width:0" /><polygon points="259.140000,79.790685 262.140000,80.790685 263.140000,79.790685 262.140000,78.790685" style="fill:rgb(0,0,255);stroke:rgb(0,0,255);stroke-width:0" /> 
  <text x="264.220000" y="77.790685" font-family="inherit" font-size="3.6" fill="rgb(0,0,255)" text-anchor="middle" transform="rotate(0.000000 264.220000,77.790685)" >4</text> </g>


<g> 
  <line x1="256.600000" y1="56.445000" x2="256.600000" y2="61.244489" style="stroke:rgb(0,0,255);stroke-width:0.50" />
<line x1="266.760000" y1="56.445000" x2="266.760000" y2="61.244489" style="stroke:rgb(0,0,255);stroke-width:0.50" />
<line x1="256.600000" y1="60.244489" x2="266.760000" y2="60.244489" style="stroke:rgb(0,0,255);stroke-width:0.50" /> 
  <polygon points="266.760000,60.244489 263.760000,59.244489 262.760000,60.244489 263.760000,61.244489" style="fill:rgb(0,0,255);stroke:rgb(0,0,255);stroke-width:0" /><polygon points="256.600000,60.244489 259.600000,61.244489 260.600000,60.244489 259.600000,59.244489" style="fill:rgb(0,0,255);stroke:rgb(0,0,255);stroke-width:0" /> 
  <text x="261.680000" y="58.244489" font-family="inherit" font-size="3.6" fill="rgb(0,0,255)" text-anchor="middle" transform="rotate(0.000000 261.680000,58.244489)" >4</text> </g>


<g> 
  <line x1="246.440000" y1="56.445000" x2="246.440000" y2="61.244489" style="stroke:rgb(0,0,255);stroke-width:0.50" />
<line x1="256.600000" y1="56.445000" x2="256.600000" y2="61.244489" style="stroke:rgb(0,0,255);stroke-width:0.50" />
<line x1="246.440000" y1="60.244489" x2="256.600000" y2="60.244489" style="stroke:rgb(0,0,255);stroke-width:0.50" /> 
  <polygon points="256.600000,60.244489 253.600000,59.244489 252.600000,60.244489 253.600000,61.244489" style="fill:rgb(0,0,255);stroke:rgb(0,0,255);stroke-width:0" /><polygon points="246.440000,60.244489 249.440000,61.244489 250.440000,60.244489 249.440000,59.244489" style="fill:rgb(0,0,255);stroke:rgb(0,0,255);stroke-width:0" /> 
  <text x="251.520000" y="58.244489" font-family="inherit" font-size="3.6" fill="rgb(0,0,255)" text-anchor="middle" transform="rotate(0.000000 251.520000,58.244489)" >4</text> </g>


<g> 
  <line x1="172.780000" y1="56.445000" x2="172.780000" y2="61.244489" style="stroke:rgb(0,0,255);stroke-width:0.50" />
<line x1="246.440000" y1="56.445000" x2="246.440000" y2="61.244489" style="stroke:rgb(0,0,255);stroke-width:0.50" />
<line x1="172.780000" y1="60.244489" x2="246.440000" y2="60.244489" style="stroke:rgb(0,0,255);stroke-width:0.50" /> 
  <polygon points="246.440000,60.244489 243.440000,59.244489 242.440000,60.244489 243.440000,61.244489" style="fill:rgb(0,0,255);stroke:rgb(0,0,255);stroke-width:0" /><polygon points="172.780000,60.244489 175.780000,61.244489 176.780000,60.244489 175.780000,59.244489" style="fill:rgb(0,0,255);stroke:rgb(0,0,255);stroke-width:0" /> 
  <text x="209.610000" y="58.244489" font-family="inherit" font-size="3.6" fill="rgb(0,0,255)" text-anchor="middle" transform="rotate(0.000000 209.610000,58.244489)" >29</text> </g>


<g> 
  <line x1="106.740000" y1="56.445000" x2="106.740000" y2="61.096468" style="stroke:rgb(0,0,255);stroke-width:0.50" />
<line x1="172.780000" y1="56.445000" x2="172.780000" y2="61.096468" style="stroke:rgb(0,0,255);stroke-width:0.50" />
<line x1="106.740000" y1="60.096468" x2="172.780000" y2="60.096468" style="stroke:rgb(0,0,255);stroke-width:0.50" /> 
  <polygon points="172.780000,60.096468 169.780000,59.096468 168.780000,60.096468 169.780000,61.096468" style="fill:rgb(0,0,255);stroke:rgb(0,0,255);stroke-width:0" /><polygon points="106.740000,60.096468 109.740000,61.096468 110.740000,60.096468 109.740000,59.096468" style="fill:rgb(0,0,255);stroke:rgb(0,0,255);stroke-width:0" /> 
  <text x="139.760000" y="58.096468" font-family="inherit" font-size="3.6" fill="rgb(0,0,255)" text-anchor="middle" transform="rotate(0.000000 139.760000,58.096468)" >26</text> </g>


<g> 
  <line x1="33.080000" y1="56.445000" x2="33.080000" y2="61.220853" style="stroke:rgb(0,0,255);stroke-width:0.50" />
<line x1="106.740000" y1="56.445000" x2="106.740000" y2="61.220853" style="stroke:rgb(0,0,255);stroke-width:0.50" />
<line x1="33.080000" y1="60.220853" x2="106.740000" y2="60.220853" style="stroke:rgb(0,0,255);stroke-width:0.50" /> 
  <polygon points="106.740000,60.220853 103.740000,59.220853 102.740000,60.220853 103.740000,61.220853" style="fill:rgb(0,0,255);stroke:rgb(0,0,255);stroke-width:0" /><polygon points="33.080000,60.220853 36.080000,61.220853 37.080000,60.220853 36.080000,59.220853" style="fill:rgb(0,0,255);stroke:rgb(0,0,255);stroke-width:0" /> 
  <text x="69.910000" y="58.220853" font-family="inherit" font-size="3.6" fill="rgb(0,0,255)" text-anchor="middle" transform="rotate(0.000000 69.910000,58.220853)" >29</text> </g>


<g> 
  <line x1="33.080000" y1="35.810000" x2="33.080000" y2="42.068043" style="stroke:rgb(0,0,255);stroke-width:0.50" />
<line x1="99.120000" y1="35.810000" x2="99.120000" y2="42.068043" style="stroke:rgb(0,0,255);stroke-width:0.50" />
<line x1="33.080000" y1="41.068043" x2="99.120000" y2="41.068043" style="stroke:rgb(0,0,255);stroke-width:0.50" /> 
  <polygon points="99.120000,41.068043 96.120000,40.068043 95.120000,41.068043 96.120000,42.068043" style="fill:rgb(0,0,255);stroke:rgb(0,0,255);stroke-width:0" /><polygon points="33.080000,41.068043 36.080000,42.068043 37.080000,41.068043 36.080000,40.068043" style="fill:rgb(0,0,255);stroke:rgb(0,0,255);stroke-width:0" /> 
  <text x="66.100000" y="39.068043" font-family="inherit" font-size="3.6" fill="rgb(0,0,255)" text-anchor="middle" transform="rotate(0.000000 66.100000,39.068043)" >26</text> </g>


<g> 
  <line x1="99.120000" y1="36.445000" x2="99.120000" y2="42.068043" style="stroke:rgb(0,0,255);stroke-width:0.50" />
<line x1="109.280000" y1="36.445000" x2="109.280000" y2="42.068043" style="stroke:rgb(0,0,255);stroke-width:0.50" />
<line x1="99.120000" y1="41.068043" x2="109.280000" y2="41.068043" style="stroke:rgb(0,0,255);stroke-width:0.50" /> 
  <polygon points="109.280000,41.068043 106.280000,40.068043 105.280000,41.068043 106.280000,42.068043" style="fill:rgb(0,0,255);stroke:rgb(0,0,255);stroke-width:0" /><polygon points="99.120000,41.068043 102.120000,42.068043 103.120000,41.068043 102.120000,40.068043" style="fill:rgb(0,0,255);stroke:rgb(0,0,255);stroke-width:0" /> 
  <text x="104.200000" y="39.068043" font-family="inherit" font-size="3.6" fill="rgb(0,0,255)" text-anchor="middle" transform="rotate(0.000000 104.200000,39.068043)" >4</text> </g>


<g> 
  <line x1="109.280000" y1="36.445000" x2="109.280000" y2="42.068043" style="stroke:rgb(0,0,255);stroke-width:0.50" />
<line x1="132.140000" y1="36.445000" x2="132.140000" y2="42.068043" style="stroke:rgb(0,0,255);stroke-width:0.50" />
<line x1="109.280000" y1="41.068043" x2="132.140000" y2="41.068043" style="stroke:rgb(0,0,255);stroke-width:0.50" /> 
  <polygon points="132.140000,41.068043 129.140000,40.068043 128.140000,41.068043 129.140000,42.068043" style="fill:rgb(0,0,255);stroke:rgb(0,0,255);stroke-width:0" /><polygon points="109.280000,41.068043 112.280000,42.068043 113.280000,41.068043 112.280000,40.068043" style="fill:rgb(0,0,255);stroke:rgb(0,0,255);stroke-width:0" /> 
  <text x="120.710000" y="39.068043" font-family="inherit" font-size="3.6" fill="rgb(0,0,255)" text-anchor="middle" transform="rotate(0.000000 120.710000,39.068043)" >9</text> </g>


<g> <line x1="118.949214" y1="24.775786" x2="127.685186" y2="16.039814" style="stroke:rgb(0,0,255);stroke-width:0.50" />
<line x1="134.140000" y1="34.445000" x2="135.308863" y2="34.445000" style="stroke:rgb(0,0,255);stroke-width:0.50" />
<path d = "M 126.978079 16.746921 A 25.028863 25.028863 0 0 1 134.308863 34.445000" style="stroke:rgb(0,0,255);stroke-width:0.50;fill:none" />
<polygon points="126.978079,16.746921 128.392293,19.575348 129.806506,19.575348 129.806506,18.161135" style="fill:rgb(0,0,255);stroke:rgb(0,0,255);stroke-width:0" />
<polygon points="134.308863,34.445000 135.308863,31.445000 134.308863,30.445000 133.308863,31.445000" style="fill:rgb(0,0,255);stroke:rgb(0,0,255);stroke-width:0" />
<text x="132.313359" y="22.376524" font-family="inherit" font-size="3.6" fill="rgb(0,0,255)" text-anchor="-2.65896411466"  >45.0°</text> </g>


<g> <text x="64.309241" y="71.823035" font-family="inherit" font-size="5" fill="rgb(0,0,0)" text-anchor="inherit" transform="rotate(0.000000 64.309241,71.823035)" >LEG-1</text> </g>


<g> <text x="140.994144" y="71.602042" font-family="inherit" font-size="5" fill="rgb(0,0,0)" text-anchor="inherit" transform="rotate(0.000000 140.994144,71.602042)" >LEG-2</text> </g>


<g> <text x="170.828327" y="91.491498" font-family="inherit" font-size="5" fill="rgb(0,0,0)" text-anchor="inherit" transform="rotate(0.000000 170.828327,91.491498)" >LEG-3</text> </g>


<g> <text x="171.270315" y="111.822941" font-family="inherit" font-size="5" fill="rgb(0,0,0)" text-anchor="inherit" transform="rotate(0.000000 171.270315,111.822941)" >LEG-4</text> </g>


<g> <text x="61.436320" y="51.049604" font-family="inherit" font-size="5" fill="rgb(0,0,0)" text-anchor="inherit" transform="rotate(0.000000 61.436320,51.049604)" >TOP_Y-1</text> </g>


<g> <text x="200.662511" y="51.712586" font-family="inherit" font-size="5" fill="rgb(0,0,0)" text-anchor="inherit" transform="rotate(0.000000 200.662511,51.712586)" >TOP_Y-2</text> </g>


<g> <text x="213.701155" y="71.823035" font-family="inherit" font-size="5" fill="rgb(0,0,0)" text-anchor="inherit" transform="rotate(0.000000 213.701155,71.823035)" >TOP_Y-3</text> </g>


<g> <text x="76.684903" y="91.270504" font-family="inherit" font-size="5" fill="rgb(0,0,0)" text-anchor="inherit" transform="rotate(0.000000 76.684903,91.270504)" >SHELF_X-1</text> </g>


<g> <text x="75.579933" y="111.601947" font-family="inherit" font-size="5" fill="rgb(0,0,0)" text-anchor="inherit" transform="rotate(0.000000 75.579933,111.601947)" >SHELF_X-2</text> </g>


<g> <text x="245.966272" y="43.535809" font-family="inherit" font-size="5" fill="rgb(0,0,0)" text-anchor="inherit" transform="rotate(0.000000 245.966272,43.535809)" >FOOT-2/3</text> </g>


<g> <text x="96.353365" y="23.425359" font-family="inherit" font-size="5" fill="rgb(0,0,0)" text-anchor="inherit" transform="rotate(0.000000 96.353365,23.425359)" >FOOT-1</text> </g>


<g> <text x="155.800739" y="23.204365" font-family="inherit" font-size="5" fill="rgb(0,0,0)" text-anchor="inherit" transform="rotate(0.000000 155.800739,23.204365)" >DIAG_BRACE-1-8</text> </g>


<g> <text x="53.922525" y="31.381142" font-family="inherit" font-size="5" fill="rgb(0,0,0)" text-anchor="inherit" transform="rotate(0.000000 53.922525,31.381142)" >SHELF_Y-1</text> </g>


<g> <text x="126.408542" y="51.712586" font-family="inherit" font-size="5" fill="rgb(0,0,0)" text-anchor="inherit" transform="rotate(0.000000 126.408542,51.712586)" >SHELF_Y-2</text> </g>


<g> <text x="260.109885" y="64.751229" font-family="inherit" font-size="3" fill="rgb(0,0,0)" text-anchor="inherit" transform="rotate(0.000000 260.109885,64.751229)" >FOOT-4</text> </g>


<g> 
  <line x1="137.220000" y1="36.445000" x2="137.220000" y2="42.156499" style="stroke:rgb(0,0,255);stroke-width:0.50" />
<line x1="151.190000" y1="27.555000" x2="151.190000" y2="42.156499" style="stroke:rgb(0,0,255);stroke-width:0.50" />
<line x1="137.220000" y1="41.156499" x2="151.190000" y2="41.156499" style="stroke:rgb(0,0,255);stroke-width:0.50" /> 
  <polygon points="151.190000,41.156499 148.190000,40.156499 147.190000,41.156499 148.190000,42.156499" style="fill:rgb(0,0,255);stroke:rgb(0,0,255);stroke-width:0" /><polygon points="137.220000,41.156499 140.220000,42.156499 141.220000,41.156499 140.220000,40.156499" style="fill:rgb(0,0,255);stroke:rgb(0,0,255);stroke-width:0" /> 
  <text x="144.205000" y="39.156499" font-family="inherit" font-size="3.6" fill="rgb(0,0,255)" text-anchor="middle" transform="rotate(0.000000 144.205000,39.156499)" >5.5</text> </g>


<g> 
  <line x1="160.080000" y1="36.445000" x2="160.080000" y2="42.183607" style="stroke:rgb(0,0,255);stroke-width:0.50" />
<line x1="165.160000" y1="36.445000" x2="165.160000" y2="42.183607" style="stroke:rgb(0,0,255);stroke-width:0.50" />
<line x1="160.080000" y1="41.183607" x2="165.160000" y2="41.183607" style="stroke:rgb(0,0,255);stroke-width:0.50" /> 
  <polygon points="165.160000,41.183607 168.160000,42.183607 169.160000,41.183607 168.160000,40.183607" style="fill:rgb(0,0,255);stroke:rgb(0,0,255);stroke-width:0" /><polygon points="160.080000,41.183607 157.080000,40.183607 156.080000,41.183607 157.080000,42.183607" style="fill:rgb(0,0,255);stroke:rgb(0,0,255);stroke-width:0" /> 
  <text x="162.620000" y="39.183607" font-family="inherit" font-size="3.6" fill="rgb(0,0,255)" text-anchor="middle" transform="rotate(0.000000 162.620000,39.183607)" >2</text> </g>


</svg>

